Access the U.S. National Provider Identifier Registry API • npi
…
As seen above, the data frame returned by npi_search() has a nested structure. Although all the data in a single row relates to one NPI, each list column contains a list of one or more values corresponding to the NPI for that row. For example, a provider’s NPI record may have multiple associated addresses, phone numbers, taxonomies, and other attributes, all of which live in the same row of the data frame.

Because nested structures can be a little tricky to work with, the npi includes npi_flatten(), a function that transforms the data frame into a flatter (i.e., unnested and merged) structure that’s easier to use. npi_flatten() performs the following transformations:

unnest the list columns

prefix the name of each unnested column with the name of its original list column

left-join the data together by NPI

npi_flatten() supports a variety of approaches to flattening the results from npi_search(). One extreme is to flatten everything at once:

npi_flatten(nyc)
#> # A tibble: 48 × 42
#>           npi basic_first_name basic_last_name basic_credential
#>         <int> <chr>            <chr>           <chr>           
#>  1 1194276360 ALYSSA           COWNAN          PA              
#>  2 1194276360 ALYSSA           COWNAN          PA              
#>  3 1306849641 MARK             MOHRMANN        MD              
#>  4 1306849641 MARK             MOHRMANN        MD              
#>  5 1306849641 MARK             MOHRMANN        MD              
#>  6 1306849641 MARK             MOHRMANN        MD              
#>  7 1326403213 RAJEE            KRAUSE          AGPCNP-C        
#>  8 1326403213 RAJEE            KRAUSE          AGPCNP-C        
#>  9 1326403213 RAJEE            KRAUSE          AGPCNP-C        
#> 10 1326403213 RAJEE            KRAUSE          AGPCNP-C        
#> # ℹ 38 more rows
#> # ℹ 38 more variables: basic_sole_proprietor <chr>, basic_gender <chr>,
#> #   basic_enumeration_date <chr>, basic_last_updated <chr>, basic_status <chr>,
#> #   basic_name <chr>, basic_name_prefix <chr>, basic_middle_name <chr>,
#> #   basic_organization_name <chr>, basic_organizational_subpart <chr>,
#> #   basic_authorized_official_credential <chr>,
#> #   basic_authorized_official_first_name <chr>, …
…
