…
Or we can flatten the whole thing and prune back later:

``` r
npi_flatten(nyc)
#> # A tibble: 48 x 42
#>       npi basic_first_name basic_last_name basic_credential
#>     <int> <chr>            <chr>           <chr>           
#>  1 1.19e9 ALYSSA           COWNAN          PA              
#>  2 1.19e9 ALYSSA           COWNAN          PA              
#>  3 1.31e9 MARK             MOHRMANN        MD              
#>  4 1.31e9 MARK             MOHRMANN        MD              
#>  5 1.31e9 MARK             MOHRMANN        MD              
#>  6 1.31e9 MARK             MOHRMANN        MD              
#>  7 1.33e9 RAJEE            KRAUSE          AGPCNP-C        
#>  8 1.33e9 RAJEE            KRAUSE          AGPCNP-C        
#>  9 1.33e9 RAJEE            KRAUSE          AGPCNP-C        
#> 10 1.33e9 RAJEE            KRAUSE          AGPCNP-C        
#> # … with 38 more rows, and 38 more variables: basic_sole_proprietor <chr>,
#> #   basic_gender <chr>, basic_enumeration_date <chr>,
#> #   basic_last_updated <chr>, basic_status <chr>, basic_name <chr>,
#> #   basic_name_prefix <chr>, basic_middle_name <chr>,
#> #   basic_organization_name <chr>, basic_organizational_subpart <chr>,
#> #   basic_authorized_official_credential <chr>,
#> #   basic_authorized_official_first_name <chr>,
#> #   basic_authorized_official_last_name <chr>,
#> #   basic_authorized_official_middle_name <chr>,
…
