…
## Details

The names of unnested columns are prefixed by the name of their
originating list column to avoid name clashes and show their lineage.
List columns containing all NULL data will be absent from the result
because there are no columns to unnest.

## Examples

``` r
# Flatten all list columns
data(npis)
npi_flatten(npis)
#> # A tibble: 48 × 42
#>           npi basic_first_name basic_last_name basic_credential
#>         <int> <chr>            <chr>           <chr>           
#>  1 1194276360 ALYSSA           COWNAN          PA              
#>  2 1194276360 ALYSSA           COWNAN          PA              
#>  3 1306849641 MARK             MOHRMANN        MD              
#>  4 1306849641 MARK             MOHRMANN        MD              
#>  5 1306849641 MARK             MOHRMANN        MD              
#>  6 1306849641 MARK             MOHRMANN        MD              
#>  7 1326403213 RAJEE            KRAUSE          AGPCNP-C        
#>  8 1326403213 RAJEE            KRAUSE          AGPCNP-C        
#>  9 1326403213 RAJEE            KRAUSE          AGPCNP-C        
#> 10 1326403213 RAJEE            KRAUSE          AGPCNP-C        
#> # ℹ 38 more rows
#> # ℹ 38 more variables: basic_sole_proprietor <chr>, basic_gender <chr>,
#> #   basic_enumeration_date <chr>, basic_last_updated <chr>, basic_status <chr>,
#> #   basic_name <chr>, basic_name_prefix <chr>, basic_middle_name <chr>,
#> #   basic_organization_name <chr>, basic_organizational_subpart <chr>,
#> #   basic_authorized_official_credential <chr>,
#> #   basic_authorized_official_first_name <chr>, …
…
