Flatten NPI search results — npi_flatten.npi_results • npi
…
    A data frame (tibble) with flattened list columns.

    Details

    The names of unnested columns are prefixed by the name of their
originating list column to avoid name clashes and show their lineage. List
columns containing all NULL data will be absent from the result because there
are no columns to unnest.

    Examples

# Flatten all list columns
data(npis)
npi_flatten(npis)
#> # A tibble: 48 × 42
#>           npi basic_first_name basic_last_name basic_credential basic_sole_prop…
#>         <int> <chr>            <chr>           <chr>            <chr>           
#>  1 1194276360 ALYSSA           COWNAN          PA               NO              
#>  2 1194276360 ALYSSA           COWNAN          PA               NO              
#>  3 1306849641 MARK             MOHRMANN        MD               NO              
#>  4 1306849641 MARK             MOHRMANN        MD               NO              
#>  5 1306849641 MARK             MOHRMANN        MD               NO              
#>  6 1306849641 MARK             MOHRMANN        MD               NO              
#>  7 1326403213 RAJEE            KRAUSE          AGPCNP-C         NO              
#>  8 1326403213 RAJEE            KRAUSE          AGPCNP-C         NO              
#>  9 1326403213 RAJEE            KRAUSE          AGPCNP-C         NO              
#> 10 1326403213 RAJEE            KRAUSE          AGPCNP-C         NO              
#> # … with 38 more rows, and 37 more variables: basic_gender <chr>,
#> #   basic_enumeration_date <chr>, basic_last_updated <chr>, basic_status <chr>,
#> #   basic_name <chr>, basic_name_prefix <chr>, basic_middle_name <chr>,
#> #   basic_organization_name <chr>, basic_organizational_subpart <chr>,
#> #   basic_authorized_official_credential <chr>,
#> #   basic_authorized_official_first_name <chr>,
#> #   basic_authorized_official_last_name <chr>, …
…
