…
codes <- c(90210, 90211, 90212)

zip_3 <- codes %>% 
  purrr::map(., ~ npi_search(postal_code  = .)) %>% 
  dplyr::bind_rows() 
#> 10 records requested
#> Requesting records 0-10...
#> 10 records requested
#> Requesting records 0-10...
#> 10 records requested
#> Requesting records 0-10...

npi_flatten(zip_3)
#> # A tibble: 104 × 47
#>         npi basic_authorized_off…¹ basic_authorized_off…² basic_authorized_off…³
#>       <int> <chr>                  <chr>                  <chr>                 
#>  1   1.15e9 AARON                  PERLMUTTER             NA                    
#>  2   1.15e9 AARON                  PERLMUTTER             NA                    
#>  3   1.15e9 AARON                  PERLMUTTER             NA                    
#>  4   1.15e9 AARON                  PERLMUTTER             NA                    
#>  5   1.15e9 AARON                  PERLMUTTER             NA                    
#>  6   1.15e9 AARON                  PERLMUTTER             NA                    
#>  7   1.15e9 AARON                  PERLMUTTER             NA                    
#>  8   1.15e9 AARON                  PERLMUTTER             NA                    
#>  9   1.15e9 AARON                  PERLMUTTER             NA                    
#> 10   1.15e9 AARON                  PERLMUTTER             NA                    
#> # ℹ 94 more rows
#> # ℹ abbreviated names: ¹​basic_authorized_official_first_name,
#> #   ²​basic_authorized_official_last_name,
#> #   ³​basic_authorized_official_middle_name
#> # ℹ 43 more variables: basic_authorized_official_name_prefix <chr>,
#> #   basic_authorized_official_name_suffix <chr>,
#> #   basic_authorized_official_telephone_number <chr>, …
```
…
