Advanced Uses • npi
…
codes <- c(90210, 90211, 90212)

zip_3 <- codes %>% 
  purrr::map(., ~ npi_search(postal_code  = .)) %>% 
  dplyr::bind_rows() 
#> 10 records requested
#> Requesting records 0-10...
#> 10 records requested
#> Requesting records 0-10...
#> 10 records requested
#> Requesting records 0-10...

npi_flatten(zip_3)
#> # A tibble: 86 × 47
#>    npi   basic…¹ basic…² basic…³ basic…⁴ basic…⁵ basic…⁶ basic…⁷ basic…⁸ basic…⁹
#>    <chr> <chr>   <chr>   <chr>   <chr>   <chr>   <chr>   <chr>   <chr>   <chr>  
#>  1 1063… RICHARD ROGAL   A       PhD     NO      M       2006-0… 2007-0… A      
#>  2 1063… RICHARD ROGAL   A       PhD     NO      M       2006-0… 2007-0… A      
#>  3 1063… RICHARD ROGAL   A       PhD     NO      M       2006-0… 2007-0… A      
#>  4 1063… RICHARD ROGAL   A       PhD     NO      M       2006-0… 2007-0… A      
#>  5 1063… MINOO   MAHMOU… NA      MD      YES     F       2019-0… 2019-0… A      
#>  6 1063… MINOO   MAHMOU… NA      MD      YES     F       2019-0… 2019-0… A      
#>  7 1093… FRED    EMMANU… FERAYD… DDS     NO      M       2007-0… 2007-0… A      
#>  8 1093… FRED    EMMANU… FERAYD… DDS     NO      M       2007-0… 2007-0… A      
#>  9 1104… GILBERT KWONG   NA      D.D.S.  YES     M       2016-0… 2016-0… A      
#> 10 1104… GILBERT KWONG   NA      D.D.S.  YES     M       2016-0… 2016-0… A      
#> # … with 76 more rows, 37 more variables: basic_name_prefix <chr>,
#> #   basic_name_suffix <chr>, basic_organization_name <chr>,
#> #   basic_organizational_subpart <chr>,
#> #   basic_authorized_official_first_name <chr>,
#> #   basic_authorized_official_last_name <chr>,
#> #   basic_authorized_official_telephone_number <chr>,
#> #   basic_authorized_official_title_or_position <chr>, …
…
