Introduction to npi • npi
…
Visit the function’s help page via ?npi_search after
installing and loading the package for more details.

Increasing number of records returned

The limit argument of npi_search() lets you
set the maximum records to return from 1 to 1200 inclusive, defaulting
to 10 records if no value is specified.

nyc_25 <- npi_search(city = "New York City", limit = 25)
#> 25 records requested
#> Requesting records 0-25...
nyc_25
#> # A tibble: 25 × 11
#>    npi    enumeration_type basic    other_names identifiers taxonomies addresses
#>  * <chr>  <chr>            <list>   <list>      <list>      <list>     <list>   
#>  1 12658… Individual       <tibble> <tibble>    <tibble>    <tibble>   <tibble> 
#>  2 16796… Individual       <tibble> <tibble>    <tibble>    <tibble>   <tibble> 
#>  3 19822… Individual       <tibble> <tibble>    <tibble>    <tibble>   <tibble> 
#>  4 14873… Individual       <tibble> <tibble>    <tibble>    <tibble>   <tibble> 
#>  5 15889… Individual       <tibble> <tibble>    <tibble>    <tibble>   <tibble> 
#>  6 19420… Individual       <tibble> <tibble>    <tibble>    <tibble>   <tibble> 
#>  7 17309… Individual       <tibble> <tibble>    <tibble>    <tibble>   <tibble> 
#>  8 16297… Individual       <tibble> <tibble>    <tibble>    <tibble>   <tibble> 
#>  9 16391… Individual       <tibble> <tibble>    <tibble>    <tibble>   <tibble> 
#> 10 14579… Individual       <tibble> <tibble>    <tibble>    <tibble>   <tibble> 
#> # ℹ 15 more rows
#> # ℹ 4 more variables: practice_locations <list>, endpoints <list>,
#> #   created_date <dttm>, last_updated_date <dttm>
…
nyc_300 <- npi_search(city = "New York City", limit = 300)
#> 300 records requested
#> Requesting records 0-200...
#> Requesting records 200-300...
nyc_300
#> # A tibble: 300 × 11
#>    npi    enumeration_type basic    other_names identifiers taxonomies addresses
#>  * <chr>  <chr>            <list>   <list>      <list>      <list>     <list>   
#>  1 12658… Individual       <tibble> <tibble>    <tibble>    <tibble>   <tibble> 
#>  2 16796… Individual       <tibble> <tibble>    <tibble>    <tibble>   <tibble> 
#>  3 19822… Individual       <tibble> <tibble>    <tibble>    <tibble>   <tibble> 
#>  4 14873… Individual       <tibble> <tibble>    <tibble>    <tibble>   <tibble> 
#>  5 15889… Individual       <tibble> <tibble>    <tibble>    <tibble>   <tibble> 
#>  6 19420… Individual       <tibble> <tibble>    <tibble>    <tibble>   <tibble> 
#>  7 17309… Individual       <tibble> <tibble>    <tibble>    <tibble>   <tibble> 
#>  8 16297… Individual       <tibble> <tibble>    <tibble>    <tibble>   <tibble> 
#>  9 16391… Individual       <tibble> <tibble>    <tibble>    <tibble>   <tibble> 
#> 10 14579… Individual       <tibble> <tibble>    <tibble>    <tibble>   <tibble> 
#> # ℹ 290 more rows
#> # ℹ 4 more variables: practice_locations <list>, endpoints <list>,
#> #   created_date <dttm>, last_updated_date <dttm>
…
Additionally, users can flatten all the list columns using
npi_flatten().

npi_flatten(nyc)
#> # A tibble: 28 × 56
#>    npi       basic_first_name basic_last_name basic_sole_proprietor basic_gender
#>    <chr>     <chr>            <chr>           <chr>                 <chr>       
#>  1 12658296… MARK             ABROMS          NO                    M           
#>  2 12658296… MARK             ABROMS          NO                    M           
#>  3 14579269… MAHMOOD          AL-ORPHALY      NO                    M           
#>  4 14579269… MAHMOOD          AL-ORPHALY      NO                    M           
#>  5 14873414… RAKSHEETH        AGARWAL         NO                    M           
#>  6 14873414… RAKSHEETH        AGARWAL         NO                    M           
#>  7 15889404… DANISH           AHMAD           NO                    M           
#>  8 15889404… DANISH           AHMAD           NO                    M           
#>  9 15889404… DANISH           AHMAD           NO                    M           
#> 10 15889404… DANISH           AHMAD           NO                    M           
#> # ℹ 18 more rows
#> # ℹ 51 more variables: basic_enumeration_date <chr>, basic_last_updated <chr>,
#> #   basic_certification_date <chr>, basic_status <chr>,
#> #   basic_middle_name <chr>, basic_credential <chr>, basic_name_prefix <chr>,
#> #   basic_name_suffix <chr>, other_names_type <chr>, other_names_code <chr>,
#> #   other_names_first_name <chr>, other_names_last_name <chr>,
#> #   other_names_middle_name <chr>, other_names_prefix <chr>, …
…
