…
## Increasing number of records returned

The `limit` argument of [`npi_search()`](../reference/npi_search.md)
lets you set the maximum records to return from 1 to 1200 inclusive,
defaulting to 10 records if no value is specified.

``` r
nyc_25 <- npi_search(city = "New York City", limit = 25)
#> 25 records requested
#> Requesting records 0-25...
nyc_25
#> # A tibble: 25 × 11
#>       npi enumeration_type basic    other_names identifiers taxonomies addresses
#>  *  <int> <chr>            <list>   <list>      <list>      <list>     <list>   
#>  1 1.21e9 Individual       <tibble> <tibble>    <tibble>    <tibble>   <tibble> 
#>  2 1.27e9 Individual       <tibble> <tibble>    <tibble>    <tibble>   <tibble> 
#>  3 1.68e9 Individual       <tibble> <tibble>    <tibble>    <tibble>   <tibble> 
#>  4 1.98e9 Individual       <tibble> <tibble>    <tibble>    <tibble>   <tibble> 
#>  5 1.49e9 Individual       <tibble> <tibble>    <tibble>    <tibble>   <tibble> 
#>  6 1.59e9 Individual       <tibble> <tibble>    <tibble>    <tibble>   <tibble> 
#>  7 1.94e9 Individual       <tibble> <tibble>    <tibble>    <tibble>   <tibble> 
#>  8 1.73e9 Individual       <tibble> <tibble>    <tibble>    <tibble>   <tibble> 
#>  9 1.63e9 Individual       <tibble> <tibble>    <tibble>    <tibble>   <tibble> 
#> 10 1.64e9 Individual       <tibble> <tibble>    <tibble>    <tibble>   <tibble> 
#> # ℹ 15 more rows
#> # ℹ 4 more variables: practice_locations <list>, endpoints <list>,
#> #   created_date <dttm>, last_updated_date <dttm>
```
…
``` r
nyc_300 <- npi_search(city = "New York City", limit = 300)
#> 300 records requested
#> Requesting records 0-200...
#> Requesting records 200-300...
nyc_300
#> # A tibble: 300 × 11
#>       npi enumeration_type basic    other_names identifiers taxonomies addresses
#>  *  <int> <chr>            <list>   <list>      <list>      <list>     <list>   
#>  1 1.21e9 Individual       <tibble> <tibble>    <tibble>    <tibble>   <tibble> 
#>  2 1.27e9 Individual       <tibble> <tibble>    <tibble>    <tibble>   <tibble> 
#>  3 1.68e9 Individual       <tibble> <tibble>    <tibble>    <tibble>   <tibble> 
#>  4 1.98e9 Individual       <tibble> <tibble>    <tibble>    <tibble>   <tibble> 
#>  5 1.49e9 Individual       <tibble> <tibble>    <tibble>    <tibble>   <tibble> 
#>  6 1.59e9 Individual       <tibble> <tibble>    <tibble>    <tibble>   <tibble> 
#>  7 1.94e9 Individual       <tibble> <tibble>    <tibble>    <tibble>   <tibble> 
#>  8 1.73e9 Individual       <tibble> <tibble>    <tibble>    <tibble>   <tibble> 
#>  9 1.63e9 Individual       <tibble> <tibble>    <tibble>    <tibble>   <tibble> 
#> 10 1.64e9 Individual       <tibble> <tibble>    <tibble>    <tibble>   <tibble> 
#> # ℹ 290 more rows
#> # ℹ 4 more variables: practice_locations <list>, endpoints <list>,
#> #   created_date <dttm>, last_updated_date <dttm>
```
…
Additionally, users can flatten all the list columns using
[`npi_flatten()`](../reference/npi_flatten.md).

``` r
npi_flatten(nyc)
#> # A tibble: 28 × 56
#>          npi basic_first_name basic_last_name basic_middle_name basic_credential
#>        <int> <chr>            <chr>           <chr>             <chr>           
#>  1    1.21e9 MOHAMED          ABDELGADER      SATI SHAMPOOL     M.B.B.S         
#>  2    1.21e9 MOHAMED          ABDELGADER      SATI SHAMPOOL     M.B.B.S         
#>  3    1.27e9 MARK             ABROMS          NA                NA              
#>  4    1.27e9 MARK             ABROMS          NA                NA              
#>  5    1.49e9 RAKSHEETH        AGARWAL         NA                M.D.            
#>  6    1.49e9 RAKSHEETH        AGARWAL         NA                M.D.            
#>  7    1.59e9 DANISH           AHMAD           A                 M.D.            
#>  8    1.59e9 DANISH           AHMAD           A                 M.D.            
#>  9    1.59e9 DANISH           AHMAD           A                 M.D.            
#> 10    1.59e9 DANISH           AHMAD           A                 M.D.            
#> # ℹ 18 more rows
#> # ℹ 51 more variables: basic_sole_proprietor <chr>, basic_sex <chr>,
#> #   basic_enumeration_date <chr>, basic_last_updated <chr>, basic_status <chr>,
#> #   basic_certification_date <chr>, basic_name_prefix <chr>,
#> #   basic_name_suffix <chr>, other_names_type <chr>, other_names_code <chr>,
#> #   other_names_first_name <chr>, other_names_last_name <chr>,
#> #   other_names_middle_name <chr>, other_names_prefix <chr>, …
```
…
